<svg width="152" height="124" viewBox="0 0 152 124" fill="none" xmlns="http://www.w3.org/2000/svg">
<path d="M109.688 0.0208644C108.407 0.295703 107.263 1.01517 106.461 2.05194C105.658 3.0887 105.248 4.37592 105.304 5.68579V116.763C105.174 117.557 105.218 118.371 105.433 119.147C105.649 119.923 106.03 120.643 106.552 121.256C107.073 121.87 107.722 122.363 108.453 122.701C109.184 123.039 109.979 123.215 110.785 123.215C111.59 123.215 112.386 123.039 113.116 122.701C113.847 122.363 114.496 121.87 115.017 121.256C115.539 120.643 115.92 119.923 116.136 119.147C116.351 118.371 116.396 117.557 116.265 116.763V5.68579C116.284 4.90501 116.138 4.1291 115.836 3.4087C115.534 2.68831 115.084 2.03964 114.515 1.50505C113.945 0.970449 113.27 0.561945 112.532 0.306203C111.794 0.0504606 111.01 -0.0467686 110.232 0.0208644C110.051 0.0119883 109.87 0.0119883 109.688 0.0208644ZM39.5346 5.86702C38.2527 6.14186 37.1094 6.86132 36.3069 7.89809C35.5045 8.93486 35.0947 10.2221 35.15 11.5319V110.917C35.0198 111.711 35.064 112.525 35.2795 113.301C35.495 114.077 35.8766 114.796 36.398 115.41C36.9194 116.024 37.568 116.517 38.2989 116.855C39.0298 117.193 39.8255 117.368 40.6308 117.368C41.4361 117.368 42.2318 117.193 42.9627 116.855C43.6935 116.517 44.3422 116.024 44.8635 115.41C45.3849 114.796 45.7666 114.077 45.9821 113.301C46.1976 112.525 46.2417 111.711 46.1115 110.917V11.5319C46.1301 10.7512 45.9838 9.97525 45.6821 9.25486C45.3805 8.53447 44.9303 7.8858 44.3609 7.3512C43.7915 6.8166 43.1158 6.4081 42.3779 6.15236C41.64 5.89661 40.8564 5.79939 40.0783 5.86702C39.8972 5.85814 39.7157 5.85814 39.5346 5.86702ZM92.15 23.4055C90.8681 23.6803 89.7248 24.3998 88.9223 25.4366C88.1199 26.4733 87.71 27.7605 87.7654 29.0704V93.3781C87.6324 94.1739 87.6743 94.9891 87.8884 95.767C88.1024 96.5449 88.4833 97.2669 89.0047 97.8826C89.5261 98.4983 90.1753 98.9931 90.9073 99.3325C91.6393 99.6718 92.4364 99.8476 93.2432 99.8476C94.0501 99.8476 94.8472 99.6718 95.5792 99.3325C96.3112 98.9931 96.9604 98.4983 97.4818 97.8826C98.0031 97.2669 98.3841 96.5449 98.5981 95.767C98.8121 94.9891 98.8541 94.1739 98.7211 93.3781V29.0704C98.7395 28.2907 98.5934 27.5159 98.2925 26.7963C97.9915 26.0768 97.5424 25.4288 96.9743 24.8944C96.4063 24.3599 95.732 23.9512 94.9955 23.6946C94.259 23.4381 93.4767 23.3396 92.6995 23.4055C92.5145 23.3962 92.3292 23.3962 92.1442 23.4055H92.15ZM21.9962 29.2516C20.7143 29.5265 19.5709 30.2459 18.7685 31.2827C17.966 32.3195 17.5562 33.6067 17.6115 34.9166V87.5319C17.4785 88.3277 17.5205 89.1429 17.7345 89.9208C17.9485 90.6988 18.3295 91.4207 18.8508 92.0365C19.3722 92.6522 20.0215 93.147 20.7534 93.4863C21.4854 93.8257 22.2826 94.0014 23.0894 94.0014C23.8962 94.0014 24.6933 93.8257 25.4253 93.4863C26.1573 93.147 26.8066 92.6522 27.3279 92.0365C27.8493 91.4207 28.2302 90.6988 28.4443 89.9208C28.6583 89.1429 28.7003 88.3277 28.5672 87.5319V34.9166C28.5856 34.1369 28.4396 33.362 28.1386 32.6425C27.8377 31.923 27.3885 31.2749 26.8205 30.7405C26.2524 30.2061 25.5782 29.7973 24.8417 29.5408C24.1051 29.2843 23.3228 29.1857 22.5457 29.2516C22.3607 29.2424 22.1753 29.2424 21.9903 29.2516H21.9962ZM57.0731 35.0978C55.7912 35.3726 54.6478 36.0921 53.8454 37.1289C53.0429 38.1656 52.6331 39.4528 52.6885 40.7627V81.6858C52.5554 82.4816 52.5974 83.2968 52.8114 84.0747C53.0255 84.8526 53.4064 85.5746 53.9278 86.1903C54.4491 86.806 55.0984 87.3008 55.8304 87.6402C56.5624 87.9795 57.3595 88.1553 58.1663 88.1553C58.9731 88.1553 59.7703 87.9795 60.5023 87.6402C61.2342 87.3008 61.8835 86.806 62.4049 86.1903C62.9262 85.5746 63.3072 84.8526 63.5212 84.0747C63.7352 83.2968 63.7772 82.4816 63.6442 81.6858V40.7627C63.6625 39.983 63.5165 39.2082 63.2155 38.4887C62.9146 37.7691 62.4655 37.1211 61.8974 36.5867C61.3294 36.0522 60.6551 35.6435 59.9186 35.3869C59.1821 35.1304 58.3997 35.0319 57.6226 35.0978C57.4376 35.0885 57.2523 35.0885 57.0672 35.0978H57.0731ZM127.227 35.0978C125.945 35.3726 124.802 36.0921 123.999 37.1289C123.197 38.1656 122.787 39.4528 122.842 40.7627V81.6858C122.712 82.4805 122.756 83.294 122.972 84.07C123.187 84.8459 123.569 85.5657 124.09 86.1795C124.612 86.7932 125.26 87.2862 125.991 87.6244C126.722 87.9625 127.518 88.1376 128.323 88.1376C129.128 88.1376 129.924 87.9625 130.655 87.6244C131.386 87.2862 132.034 86.7932 132.556 86.1795C133.077 85.5657 133.459 84.8459 133.674 84.07C133.89 83.294 133.934 82.4805 133.804 81.6858V40.7627C133.822 39.9819 133.676 39.206 133.374 38.4856C133.073 37.7652 132.623 37.1166 132.053 36.582C131.484 36.0474 130.808 35.6389 130.07 35.3831C129.332 35.1274 128.549 35.0302 127.771 35.0978C127.59 35.0889 127.408 35.0889 127.227 35.0978ZM4.45769 46.7901C3.17579 47.0649 2.03244 47.7844 1.22999 48.8212C0.427537 49.8579 0.017725 51.1452 0.0730772 52.455V69.9935C-0.0571311 70.7882 -0.0129543 71.6017 0.202545 72.3777C0.418045 73.1536 0.799712 73.8734 1.32109 74.4872C1.84247 75.1009 2.49108 75.5939 3.22197 75.9321C3.95286 76.2702 4.74854 76.4453 5.55385 76.4453C6.35916 76.4453 7.15484 76.2702 7.88573 75.9321C8.61661 75.5939 9.26523 75.1009 9.7866 74.4872C10.308 73.8734 10.6896 73.1536 10.9051 72.3777C11.1206 71.6017 11.1648 70.7882 11.0346 69.9935V52.455C11.0532 51.6742 10.9068 50.8983 10.6052 50.1779C10.3035 49.4576 9.85333 48.8089 9.28397 48.2743C8.71462 47.7397 8.03891 47.3312 7.30097 47.0754C6.56303 46.8197 5.77945 46.7225 5.00139 46.7901C4.81832 46.781 4.63491 46.781 4.45185 46.7901H4.45769ZM74.6115 46.7901C73.3296 47.0649 72.1863 47.7844 71.3838 48.8212C70.5814 49.8579 70.1716 51.1452 70.2269 52.455V69.9935C70.0939 70.7893 70.1359 71.6045 70.3499 72.3824C70.5639 73.1603 70.9449 73.8822 71.4662 74.498C71.9876 75.1137 72.6368 75.6085 73.3688 75.9478C74.1008 76.2872 74.8979 76.463 75.7048 76.463C76.5116 76.463 77.3087 76.2872 78.0407 75.9478C78.7727 75.6085 79.422 75.1137 79.9433 74.498C80.4647 73.8822 80.8456 73.1603 81.0597 72.3824C81.2737 71.6045 81.3156 70.7893 81.1826 69.9935V52.455C81.201 51.6753 81.055 50.9005 80.754 50.181C80.453 49.4614 80.0039 48.8134 79.4359 48.279C78.8678 47.7446 78.1936 47.3358 77.457 47.0793C76.7205 46.8227 75.9382 46.7242 75.1611 46.7901C74.9761 46.7808 74.7907 46.7808 74.6057 46.7901H74.6115ZM144.765 46.7901C143.483 47.0649 142.34 47.7844 141.538 48.8212C140.735 49.8579 140.325 51.1452 140.381 52.455V69.9935C140.251 70.7882 140.295 71.6017 140.51 72.3777C140.726 73.1536 141.107 73.8734 141.629 74.4872C142.15 75.1009 142.799 75.5939 143.53 75.9321C144.261 76.2702 145.056 76.4453 145.862 76.4453C146.667 76.4453 147.463 76.2702 148.193 75.9321C148.924 75.5939 149.573 75.1009 150.094 74.4872C150.616 73.8734 150.997 73.1536 151.213 72.3777C151.428 71.6017 151.473 70.7882 151.342 69.9935V52.455C151.361 51.6742 151.215 50.8983 150.913 50.1779C150.611 49.4576 150.161 48.8089 149.592 48.2743C149.022 47.7397 148.347 47.3312 147.609 47.0754C146.871 46.8197 146.087 46.7225 145.309 46.7901C145.128 46.7812 144.947 46.7812 144.765 46.7901Z" fill="#9A9A9A"/>
</svg>
